PM566 Homework 3
…
# Calculate TF–IDF
tfidf <- term_token_counts %>%
  bind_tf_idf(token, term, n)

# Top 5 tokens per term by TF–IDF
top5_tfidf <- tfidf %>%
  group_by(term) %>%
  slice_max(order_by = tf_idf, n = 5) %>%
  ungroup()

top5_tfidf

# A tibble: 25 × 6
   term            token           n      tf   idf  tf_idf
   <chr>           <chr>       <int>   <dbl> <dbl>   <dbl>
 1 covid           covid        7275 0.0736  1.61  0.118  
 2 covid           pandemic      800 0.00810 1.61  0.0130 
 3 covid           coronavirus   647 0.00655 1.61  0.0105 
 4 covid           sars          372 0.00376 1.61  0.00606
 5 covid           cov           334 0.00338 1.61  0.00544
 6 cystic fibrosis cf            625 0.0244  0.916 0.0223 
 7 cystic fibrosis fibrosis      867 0.0338  0.511 0.0173 
 8 cystic fibrosis cystic        862 0.0336  0.511 0.0172 
 9 cystic fibrosis cftr           86 0.00335 1.61  0.00539
10 cystic fibrosis sweat          83 0.00323 1.61  0.00521
# ℹ 15 more rows
…
