PM566 Homework 2
…
[1] 3.14868

Question 3

Answer: Yes, there were planes that flew for multiple airlines. In total, 34 aircraft tail numbers appeared with more than one carrier in the dataset. These planes were shared across airlines such as DL (Delta), FL (AirTran), EV (ExpressJet), and 9E (Endeavor Air). For example, tail number N994AT flew for both FL and DL.

flights %>%
  filter(!is.na(tailnum)) %>%
  distinct(tailnum, carrier) %>%
  count(tailnum) %>%
  filter(n > 1) %>%
  left_join(flights %>% select(tailnum, carrier) %>% distinct(), by = "tailnum")

# A tibble: 34 × 3
   tailnum     n carrier
   <chr>   <int> <chr>  
 1 N146PQ      2 9E     
 2 N146PQ      2 EV     
 3 N153PQ      2 9E     
 4 N153PQ      2 EV     
 5 N176PQ      2 9E     
 6 N176PQ      2 EV     
 7 N181PQ      2 9E     
 8 N181PQ      2 EV     
 9 N197PQ      2 9E     
10 N197PQ      2 EV     
# ℹ 24 more rows
…
sampled_data <- flights_weather_clean %>% sample_n(5000)

weather_summary <- flights_weather_clean %>%
  mutate(
    temp_bin = cut(temp, breaks = c(0, 32, 50, 70, 90, 110), include.lowest = TRUE),
    wind_bin = cut(wind_speed, breaks = c(0, 5, 10, 15, 20, 30), include.lowest = TRUE),
    precip_bin = cut(precip, breaks = c(0, 0.01, 0.1, 0.5, 1, 2), include.lowest = TRUE)
  ) %>%
  group_by(temp_bin, wind_bin, precip_bin) %>%
  summarise(avg_dep_delay = mean(dep_delay, na.rm = TRUE), .groups = "drop") %>%
  arrange(desc(avg_dep_delay))

weather_summary

# A tibble: 82 × 4
   temp_bin wind_bin precip_bin avg_dep_delay
   <fct>    <fct>    <fct>              <dbl>
 1 (70,90]  [0,5]    (1,2]              113. 
 2 [0,32]   (10,15]  (0.1,0.5]           96.0
 3 (50,70]  <NA>     (0.1,0.5]           95.4
 4 (70,90]  <NA>     (0.01,0.1]          95.3
 5 (70,90]  (15,20]  (0.1,0.5]           72.5
 6 (70,90]  (15,20]  (0.5,1]             70.9
 7 (70,90]  (15,20]  (0.01,0.1]          64.1
 8 (70,90]  (20,30]  (0.01,0.1]          56.4
 9 (32,50]  <NA>     (0.01,0.1]          54.8
10 (70,90]  (5,10]   (0.01,0.1]          54.6
# ℹ 72 more rows
…
